…
# Problem 2

\*First I create a dataframe containing variables for my plots.

``` r
hw1_problem2_df = tibble(
  x = rnorm(500,0,1),
  y = rnorm(500,0,1),
 vec_logical = (x + y) > 1,
 vec_numeric = as.numeric(vec_logical),
 vec_factor = as.factor(vec_logical)
 )

hw1_problem2_df
## # A tibble: 500 x 5
##         x       y vec_logical vec_numeric vec_factor
##     <dbl>   <dbl> <lgl>             <dbl> <fct>     
##  1 -0.687  0.150  FALSE                 0 FALSE     
##  2 -0.446 -0.0792 FALSE                 0 FALSE     
##  3  1.22  -0.0974 TRUE                  1 TRUE      
##  4  0.360  0.216  FALSE                 0 FALSE     
##  5  0.401  0.882  TRUE                  1 TRUE      
##  6  0.111  0.206  FALSE                 0 FALSE     
##  7 -0.556 -0.616  FALSE                 0 FALSE     
##  8  1.79  -0.735  TRUE                  1 TRUE      
##  9  0.498 -0.132  FALSE                 0 FALSE     
## 10 -1.97   0.310  FALSE                 0 FALSE     
## # … with 490 more rows
```
…
